Tue Feb 26 09:22:42 CST 2019
Preloading tcmalloc_minimal.so
Athena               INFO including file "AthenaCommon/Preparation.py"
Athena               INFO including file "AthenaCommon/Atlas.UnixStandardJob.py"
Athena               INFO executing ROOT6Setup
Athena               INFO including file "AthenaCommon/Execution.py"
Athena               INFO including file "AthenaPoolExampleAlgorithms/AthenaPoolExample_RFilterJobOptions.py"
Py:ConfigurableDb    INFO Read module info for 5462 configurables from 20 genConfDb files
Py:ConfigurableDb    INFO No duplicates have been found: that's good !
Athena               INFO including file "AthenaCommon/runbatch.py"
ApplicationMgr       INFO Updating Gaudi::PluginService::SetDebug(level) to level= 'PluginDebugLevel':0
ApplicationMgr       INFO Updating Gaudi::PluginService::SetDebug(level) to level= 'PluginDebugLevel':0
ApplicationMgr    SUCCESS 
====================================================================================================================================
                                                   Welcome to ApplicationMgr (GaudiCoreSvc v31r0)
                                          running on atlaslogin01.hep.anl.gov on Tue Feb 26 09:22:51 2019
====================================================================================================================================
ApplicationMgr       INFO Application Manager Configured successfully
ApplicationMgr       INFO Updating Gaudi::PluginService::SetDebug(level) to level= 'PluginDebugLevel':0
StatusCodeSvc        INFO initialize
AthDictLoaderSvc     INFO in initialize...
AthDictLoaderSvc     INFO acquired Dso-registry
ClassIDSvc           INFO  getRegistryEntries: read 3110 CLIDRegistry entries for module ALL
CoreDumpSvc          INFO install f-a-t-a-l handler... (flag = -1)
AthenaEventLoopMgr   INFO Initializing AthenaEventLoopMgr - package version AthenaServices-00-00-00
ClassIDSvc           INFO  getRegistryEntries: read 836 CLIDRegistry entries for module ALL
ReadData            DEBUG Property update for OutputLevel : new value = 2
ReadData             INFO in initialize()
MetaDataSvc         DEBUG Property update for OutputLevel : new value = 2
MetaDataSvc          INFO Initializing MetaDataSvc - package version AthenaServices-00-00-00
MetaDataSvc         DEBUG Service base class initialized successfully
AthenaPoolCnvSvc     INFO Initializing AthenaPoolCnvSvc - package version AthenaPoolCnvSvc-00-00-00
PoolSvc             DEBUG Property update for OutputLevel : new value = 2
PoolSvc             DEBUG Service base class initialized successfully
PoolSvc              INFO Set connectionsvc retry/timeout/IDLE timeout to  'ConnectionRetrialPeriod':300/ 'ConnectionRetrialTimeOut':3600/ 'ConnectionTimeOut':5 seconds with connection cleanup disabled
PoolSvc              INFO Frontier compression level set to 5
DBReplicaSvc         INFO Frontier server at (serverurl=http://atlasfrontier-ai.cern.ch:8000/atlr)(serverurl=http://lcgft-atlas.gridpp.rl.ac.uk:3128/frontierATLAS)(serverurl=http://frontier-atlas.lcg.triumf.ca:3128/ATLAS_frontier)(serverurl=http://ccfrontier.in2p3.fr:23128/ccin2p3-AtlasFrontier)(proxyurl=http://atlasbpfrontier.cern.ch:3127)(proxyurl=http://atlasbpfrontier.fnal.gov:3127) will be considered for COOL data
DBReplicaSvc         INFO Read replica configuration from /cvmfs/atlas-nightlies.cern.ch/repo/sw/master/2019-02-25T2138/Athena/22.0.1/InstallArea/x86_64-centos7-gcc8-opt/share/dbreplica.config
DBReplicaSvc         INFO Total of 1 servers found for host atlaslogin01.hep.anl.gov [ATLF ]
PoolSvc              INFO Successfully setup replica sorting algorithm
PoolSvc             DEBUG OutputLevel is 
PoolSvc              INFO Setting up APR FileCatalog and Streams
PoolSvc             DEBUG POOL ReadCatalog is file:Catalog.xml
PoolSvc             DEBUG POOL ReadCatalog is file:Catalog1.xml
PoolSvc              INFO POOL WriteCatalog is file:Catalog2.xml
DbSession            INFO     Open     DbSession    
Domain[ROOT_All]     INFO >   Access   DbDomain     READ      [ROOT_All] 
MetaDataSvc          INFO Found MetaDataTools = PublicToolHandleArray(['IOVDbMetaDataTool'])
EventSelector       DEBUG Property update for OutputLevel : new value = 2
EventSelector        INFO Initializing EventSelector - package version EventSelectorAthenaPool-00-00-00
EventSelector       DEBUG Service base class initialized successfully
EventSelector        INFO reinitialization...
EventSelector        INFO EventSelection with query EventNumber > 9
EventSelector       DEBUG Try item: "SimplePoolCollection5.root" from the collection list.
EventSelector        INFO Using standard collection ref 
AthenaPoolAddre...  DEBUG Property update for OutputLevel : new value = 2
AthenaPoolAddre...  DEBUG Service base class initialized successfully
ReadData            DEBUG input handles: 2
ReadData            DEBUG output handles: 0
ReadData            DEBUG Data Deps for ReadData
  + INPUT   ( 'ExampleHitContainer' , 'StoreGateSvc+MyHits' ) 
  + INPUT   ( 'ExampleTrackContainer' , 'StoreGateSvc+MyTracks' ) 
HistogramPersis...WARNING Histograms saving not required.
AthenaEventLoopMgr   INFO Setup EventSelector service EventSelector
ApplicationMgr       INFO Application Manager Initialized successfully
EventSelector       DEBUG Try item: "SimplePoolCollection5.root" from the collection list.
ApplicationMgr       INFO Application Manager Started successfully
EventSelector       DEBUG Get AttributeList from the collection
EventSelector       DEBUG AttributeList size 2
EventSelector       DEBUG record AthenaAttribute, name = Stream1_derived_ref = [DB=????][CNT=POOLContainer(DataHeader)][CLID=????][TECH=0000020?][OID=00000006-00000000].
EventSelector       DEBUG record AthenaAttribute, name = Stream1_ref = [DB=????][CNT=][CLID=????][TECH=0000020?][OID=00000006-0000000A].
EventSelector       DEBUG record AthenaAttribute, name = eventRef = [DB=????][CNT=POOLContainer(DataHeader)][CLID=????][TECH=0000020?][OID=00000006-00000000].
EventSelector       DEBUG found AthenaAttribute, name = eventRef = [DB=????][CNT=POOLContainer(DataHeader)][CLID=????][TECH=0000020?][OID=00000006-00000000]
EventPersistenc...   INFO Added successfully Conversion service:AthenaPoolCnvSvc
Domain[ROOT_All]     INFO ->  Access   DbDatabase   READ      [ROOT_All] ????
Domain[ROOT_All]     INFO                           SimplePoolFile5.root
SimplePoolFile5...  DEBUG --> Access   DbContainer  READ      [ROOT_All] ##Shapes
##Shapes            DEBUG Opening
##Shapes            DEBUG    attributes# = 1
##Shapes            DEBUG Opened container ##Shapes of type ROOT_Tree
SimplePoolFile5...  DEBUG --->Reading Shape[0 , ????]: [1 Column(s)]
SimplePoolFile5...  DEBUG ---->[0]:EventInfo_p4 Typ:EventInfo_p4 [21] Size:0 Offset:0 #Elements:1
SimplePoolFile5...  DEBUG --->Reading Shape[1 , ????]: [1 Column(s)]
SimplePoolFile5...  DEBUG ---->[0]:ExampleTrackContainer_p1 Typ:ExampleTrackContainer_p1 [21] Size:0 Offset:0 #Elements:1
SimplePoolFile5...  DEBUG --->Reading Shape[2 , ????]: [1 Column(s)]
SimplePoolFile5...  DEBUG ---->[0]:DataHeaderForm_p5 Typ:DataHeaderForm_p5 [21] Size:0 Offset:0 #Elements:1
SimplePoolFile5...  DEBUG --->Reading Shape[3 , ????]: [1 Column(s)]
SimplePoolFile5...  DEBUG ---->[0]:DataHeader_p5 Typ:DataHeader_p5 [21] Size:0 Offset:0 #Elements:1
SimplePoolFile5...  DEBUG --->Reading Shape[4 , ????]: [1 Column(s)]
SimplePoolFile5...  DEBUG ---->[0]:EventStreamInfo_p3 Typ:EventStreamInfo_p3 [21] Size:0 Offset:0 #Elements:1
##Shapes            DEBUG No objects passing selection criteria... Container has 5 Entries in total.
SimplePoolFile5...  DEBUG --> Access   DbContainer  READ      [ROOT_All] ##Links
##Links             DEBUG Opening
##Links             DEBUG    attributes# = 1
##Links             DEBUG Opened container ##Links of type ROOT_Tree
SimplePoolFile5...  DEBUG --->Reading Assoc:????/##Params [200]  (2 , ffffffff)
SimplePoolFile5...  DEBUG ---->ClassID:????
SimplePoolFile5...  DEBUG --->Reading Assoc:????/CollectionTree(EventInfo_p4/McEventInfo) [20?]  (3 , ffffffff)
SimplePoolFile5...  DEBUG ---->ClassID:????
SimplePoolFile5...  DEBUG --->Reading Assoc:????/CollectionTree(ExampleTrackContainer_p1/MyTracks) [20?]  (4 , ffffffff)
SimplePoolFile5...  DEBUG ---->ClassID:????
SimplePoolFile5...  DEBUG --->Reading Assoc:????/POOLContainerForm(DataHeaderForm) [20?]  (5 , ffffffff)
SimplePoolFile5...  DEBUG ---->ClassID:????
SimplePoolFile5...  DEBUG --->Reading Assoc:????/POOLContainer(DataHeader) [20?]  (6 , ffffffff)
SimplePoolFile5...  DEBUG ---->ClassID:????
SimplePoolFile5...  DEBUG --->Reading Assoc:????/MetaData(EventStreamInfo_p3/Stream1) [20?]  (7 , ffffffff)
SimplePoolFile5...  DEBUG ---->ClassID:????
SimplePoolFile5...  DEBUG --->Reading Assoc:????/MetaDataHdrForm(DataHeaderForm) [20?]  (8 , ffffffff)
SimplePoolFile5...  DEBUG ---->ClassID:????
SimplePoolFile5...  DEBUG --->Reading Assoc:????/MetaDataHdr(DataHeader) [20?]  (9 , ffffffff)
SimplePoolFile5...  DEBUG ---->ClassID:????
##Links             DEBUG No objects passing selection criteria... Container has 8 Entries in total.
SimplePoolFile5...  DEBUG --> Access   DbContainer  READ      [ROOT_All] ##Params
##Params            DEBUG Opening
##Params            DEBUG    attributes# = 1
##Params            DEBUG Opened container ##Params of type ROOT_Tree
SimplePoolFile5...  DEBUG --->Reading Param:FID=[????]
SimplePoolFile5...  DEBUG --->Reading Param:PFN=[SimplePoolFile5.root]
SimplePoolFile5...  DEBUG --->Reading Param:POOL_VSN=[1.1]
SimplePoolFile5...  DEBUG --->Reading Param:FORMAT_VSN=[1.1]
##Params            DEBUG No objects passing selection criteria... Container has 4 Entries in total.
SimplePoolFile5...  DEBUG --> Access   DbContainer  READ      [ROOT_Tree] POOLContainer(DataHeader)
POOLContainer(D...  DEBUG Opening
POOLContainer(D...  DEBUG    attributes# = 1
POOLContainer(D...  DEBUG Branch container 'DataHeader'
POOLContainer(D...  DEBUG Opened container POOLContainer(DataHeader) of type ROOT_Tree
SimplePoolFile5...  DEBUG --> Access   DbContainer  READ      [ROOT_Tree] POOLContainerForm(DataHeaderForm)
POOLContainerFo...  DEBUG Opening
POOLContainerFo...  DEBUG    attributes# = 1
POOLContainerFo...  DEBUG Branch container 'DataHeaderForm'
POOLContainerFo...  DEBUG Opened container POOLContainerForm(DataHeaderForm) of type ROOT_Tree
AthenaPoolAddre...  DEBUG The current Event contains: 3 objects
AthenaPoolAddre...  DEBUG loadAddresses: DataObject address, clid = 2101, name = McEventInfo
AthenaPoolAddre...  DEBUG loadAddresses: DataObject address, clid = 9103, name = MyTracks
AlgResourcePool      INFO TopAlg list empty. Recovering the one of Application Manager
SimplePoolFile5...  DEBUG --> Access   DbContainer  READ      [ROOT_Tree] CollectionTree(EventInfo_p4/McEventInfo)
CollectionTree(...  DEBUG Opening
CollectionTree(...  DEBUG    attributes# = 1
CollectionTree(...  DEBUG Branch container 'EventInfo_p4_McEventInfo'
CollectionTree(...  DEBUG Opened container CollectionTree(EventInfo_p4/McEventInfo) of type ROOT_Tree
AthenaPoolConve...   INFO massageEventInfo: unable to get OverrideRunNumberFromInput property from EventSelector 
AthenaEventLoopMgr   INFO   ===>>>  start of run 1    <<<===
AthenaEventLoopMgr   INFO   ===>>>  start processing event #10, run #1 0 events processed so far  <<<===
ReadData            DEBUG in execute()
ClassIDSvc           INFO  getRegistryEntries: read 2092 CLIDRegistry entries for module ALL
ReadData          WARNING Could not find EventStreamInfo
ReadData             INFO EventInfo event: 10 run: 1
ReadData             INFO Get Smart data ptr 1
SimplePoolFile5...  DEBUG --> Access   DbContainer  READ      [ROOT_Tree] CollectionTree(ExampleTrackContainer_p1/MyTracks)
CollectionTree(...  DEBUG Opening
CollectionTree(...  DEBUG    attributes# = 1
CollectionTree(...  DEBUG Branch container 'ExampleTrackContainer_p1_MyTracks'
CollectionTree(...  DEBUG Opened container CollectionTree(ExampleTrackContainer_p1/MyTracks) of type ROOT_Tree
ReadData             INFO Track pt = 1018.38 eta = -11.0052 phi = 149.134 detector = Track made in: DummyHitDetector
ReadData          WARNING Could not follow ExampleTrackContainer/MyTracks ElementLinks to ExampleHitContainer/MyHits
ReadData             INFO Could not find ExampleHitContainer/MyHits
AthenaEventLoopMgr   INFO   ===>>>  done processing event #10, run #1 1 events processed so far  <<<===
EventSelector       DEBUG Get AttributeList from the collection
EventSelector       DEBUG AttributeList size 2
EventSelector       DEBUG record AthenaAttribute, name = Stream1_derived_ref = [DB=????][CNT=POOLContainer(DataHeader)][CLID=????][TECH=0000020?][OID=00000006-00000001].
EventSelector       DEBUG record AthenaAttribute, name = Stream1_ref = [DB=????][CNT=][CLID=????][TECH=0000020?][OID=00000006-0000000B].
EventSelector       DEBUG record AthenaAttribute, name = eventRef = [DB=????][CNT=POOLContainer(DataHeader)][CLID=????][TECH=0000020?][OID=00000006-00000001].
EventSelector       DEBUG found AthenaAttribute, name = eventRef = [DB=????][CNT=POOLContainer(DataHeader)][CLID=????][TECH=0000020?][OID=00000006-00000001]
AthenaPoolAddre...  DEBUG The current Event contains: 3 objects
AthenaPoolAddre...  DEBUG loadAddresses: DataObject address, clid = 2101, name = McEventInfo
AthenaPoolAddre...  DEBUG loadAddresses: DataObject address, clid = 9103, name = MyTracks
AthenaEventLoopMgr   INFO   ===>>>  start processing event #11, run #1 1 events processed so far  <<<===
ReadData            DEBUG in execute()
ClassIDSvc           INFO  getRegistryEntries: read 10 CLIDRegistry entries for module ALL
ReadData          WARNING Could not find EventStreamInfo
ReadData             INFO EventInfo event: 11 run: 1
ReadData             INFO Get Smart data ptr 1
ReadData             INFO Track pt = 1118.13 eta = -10.9031 phi = 163.786 detector = Track made in: DummyHitDetector
ReadData          WARNING Could not follow ExampleTrackContainer/MyTracks ElementLinks to ExampleHitContainer/MyHits
ReadData             INFO Could not find ExampleHitContainer/MyHits
AthenaEventLoopMgr   INFO   ===>>>  done processing event #11, run #1 2 events processed so far  <<<===
EventSelector       DEBUG Get AttributeList from the collection
EventSelector       DEBUG AttributeList size 2
EventSelector       DEBUG record AthenaAttribute, name = Stream1_derived_ref = [DB=????][CNT=POOLContainer(DataHeader)][CLID=????][TECH=0000020?][OID=00000006-00000002].
EventSelector       DEBUG record AthenaAttribute, name = Stream1_ref = [DB=????][CNT=][CLID=????][TECH=0000020?][OID=00000006-0000000C].
EventSelector       DEBUG record AthenaAttribute, name = eventRef = [DB=????][CNT=POOLContainer(DataHeader)][CLID=????][TECH=0000020?][OID=00000006-00000002].
EventSelector       DEBUG found AthenaAttribute, name = eventRef = [DB=????][CNT=POOLContainer(DataHeader)][CLID=????][TECH=0000020?][OID=00000006-00000002]
AthenaPoolAddre...  DEBUG The current Event contains: 3 objects
AthenaPoolAddre...  DEBUG loadAddresses: DataObject address, clid = 2101, name = McEventInfo
AthenaPoolAddre...  DEBUG loadAddresses: DataObject address, clid = 9103, name = MyTracks
AthenaEventLoopMgr   INFO   ===>>>  start processing event #12, run #1 2 events processed so far  <<<===
ReadData            DEBUG in execute()
ReadData          WARNING Could not find EventStreamInfo
ReadData             INFO EventInfo event: 12 run: 1
ReadData             INFO Get Smart data ptr 1
ReadData             INFO Track pt = 1217.93 eta = -10.82 phi = 178.438 detector = Track made in: DummyHitDetector
ReadData          WARNING Could not follow ExampleTrackContainer/MyTracks ElementLinks to ExampleHitContainer/MyHits
ReadData             INFO Could not find ExampleHitContainer/MyHits
AthenaEventLoopMgr   INFO   ===>>>  done processing event #12, run #1 3 events processed so far  <<<===
EventSelector       DEBUG Get AttributeList from the collection
EventSelector       DEBUG AttributeList size 2
EventSelector       DEBUG record AthenaAttribute, name = Stream1_derived_ref = [DB=????][CNT=POOLContainer(DataHeader)][CLID=????][TECH=0000020?][OID=00000006-00000003].
EventSelector       DEBUG record AthenaAttribute, name = Stream1_ref = [DB=????][CNT=][CLID=????][TECH=0000020?][OID=00000006-0000000D].
EventSelector       DEBUG record AthenaAttribute, name = eventRef = [DB=????][CNT=POOLContainer(DataHeader)][CLID=????][TECH=0000020?][OID=00000006-00000003].
EventSelector       DEBUG found AthenaAttribute, name = eventRef = [DB=????][CNT=POOLContainer(DataHeader)][CLID=????][TECH=0000020?][OID=00000006-00000003]
AthenaPoolAddre...  DEBUG The current Event contains: 3 objects
AthenaPoolAddre...  DEBUG loadAddresses: DataObject address, clid = 2101, name = McEventInfo
AthenaPoolAddre...  DEBUG loadAddresses: DataObject address, clid = 9103, name = MyTracks
AthenaEventLoopMgr   INFO   ===>>>  start processing event #13, run #1 3 events processed so far  <<<===
ReadData            DEBUG in execute()
ReadData          WARNING Could not find EventStreamInfo
ReadData             INFO EventInfo event: 13 run: 1
ReadData             INFO Get Smart data ptr 1
ReadData             INFO Track pt = 1317.76 eta = -10.751 phi = 193.09 detector = Track made in: DummyHitDetector
ReadData          WARNING Could not follow ExampleTrackContainer/MyTracks ElementLinks to ExampleHitContainer/MyHits
ReadData             INFO Could not find ExampleHitContainer/MyHits
AthenaEventLoopMgr   INFO   ===>>>  done processing event #13, run #1 4 events processed so far  <<<===
EventSelector       DEBUG Get AttributeList from the collection
EventSelector       DEBUG AttributeList size 2
EventSelector       DEBUG record AthenaAttribute, name = Stream1_derived_ref = [DB=????][CNT=POOLContainer(DataHeader)][CLID=????][TECH=0000020?][OID=00000006-00000004].
EventSelector       DEBUG record AthenaAttribute, name = Stream1_ref = [DB=????][CNT=][CLID=????][TECH=0000020?][OID=00000006-0000000E].
EventSelector       DEBUG record AthenaAttribute, name = eventRef = [DB=????][CNT=POOLContainer(DataHeader)][CLID=????][TECH=0000020?][OID=00000006-00000004].
EventSelector       DEBUG found AthenaAttribute, name = eventRef = [DB=????][CNT=POOLContainer(DataHeader)][CLID=????][TECH=0000020?][OID=00000006-00000004]
AthenaPoolAddre...  DEBUG The current Event contains: 3 objects
AthenaPoolAddre...  DEBUG loadAddresses: DataObject address, clid = 2101, name = McEventInfo
AthenaPoolAddre...  DEBUG loadAddresses: DataObject address, clid = 9103, name = MyTracks
AthenaEventLoopMgr   INFO   ===>>>  start processing event #14, run #1 4 events processed so far  <<<===
ReadData            DEBUG in execute()
ReadData          WARNING Could not find EventStreamInfo
ReadData             INFO EventInfo event: 14 run: 1
ReadData             INFO Get Smart data ptr 1
ReadData             INFO Track pt = 1417.61 eta = -10.6927 phi = 207.741 detector = Track made in: DummyHitDetector
ReadData          WARNING Could not follow ExampleTrackContainer/MyTracks ElementLinks to ExampleHitContainer/MyHits
ReadData             INFO Could not find ExampleHitContainer/MyHits
AthenaEventLoopMgr   INFO   ===>>>  done processing event #14, run #1 5 events processed so far  <<<===
EventSelector       DEBUG Get AttributeList from the collection
EventSelector       DEBUG AttributeList size 2
EventSelector       DEBUG record AthenaAttribute, name = Stream1_derived_ref = [DB=????][CNT=POOLContainer(DataHeader)][CLID=????][TECH=0000020?][OID=00000006-00000005].
EventSelector       DEBUG record AthenaAttribute, name = Stream1_ref = [DB=????][CNT=][CLID=????][TECH=0000020?][OID=00000006-0000000F].
EventSelector       DEBUG record AthenaAttribute, name = eventRef = [DB=????][CNT=POOLContainer(DataHeader)][CLID=????][TECH=0000020?][OID=00000006-00000005].
EventSelector       DEBUG found AthenaAttribute, name = eventRef = [DB=????][CNT=POOLContainer(DataHeader)][CLID=????][TECH=0000020?][OID=00000006-00000005]
AthenaPoolAddre...  DEBUG The current Event contains: 3 objects
AthenaPoolAddre...  DEBUG loadAddresses: DataObject address, clid = 2101, name = McEventInfo
AthenaPoolAddre...  DEBUG loadAddresses: DataObject address, clid = 9103, name = MyTracks
AthenaEventLoopMgr   INFO   ===>>>  start processing event #15, run #1 5 events processed so far  <<<===
ReadData            DEBUG in execute()
ReadData          WARNING Could not find EventStreamInfo
ReadData             INFO EventInfo event: 15 run: 1
ReadData             INFO Get Smart data ptr 1
ReadData             INFO Track pt = 1517.49 eta = -10.6429 phi = 222.393 detector = Track made in: DummyHitDetector
ReadData          WARNING Could not follow ExampleTrackContainer/MyTracks ElementLinks to ExampleHitContainer/MyHits
ReadData             INFO Could not find ExampleHitContainer/MyHits
AthenaEventLoopMgr   INFO   ===>>>  done processing event #15, run #1 6 events processed so far  <<<===
EventSelector       DEBUG Get AttributeList from the collection
EventSelector       DEBUG AttributeList size 2
EventSelector       DEBUG record AthenaAttribute, name = Stream1_derived_ref = [DB=????][CNT=POOLContainer(DataHeader)][CLID=????][TECH=0000020?][OID=00000006-00000006].
EventSelector       DEBUG record AthenaAttribute, name = Stream1_ref = [DB=????][CNT=][CLID=????][TECH=0000020?][OID=00000006-00000010].
EventSelector       DEBUG record AthenaAttribute, name = eventRef = [DB=????][CNT=POOLContainer(DataHeader)][CLID=????][TECH=0000020?][OID=00000006-00000006].
EventSelector       DEBUG found AthenaAttribute, name = eventRef = [DB=????][CNT=POOLContainer(DataHeader)][CLID=????][TECH=0000020?][OID=00000006-00000006]
AthenaPoolAddre...  DEBUG The current Event contains: 3 objects
AthenaPoolAddre...  DEBUG loadAddresses: DataObject address, clid = 2101, name = McEventInfo
AthenaPoolAddre...  DEBUG loadAddresses: DataObject address, clid = 9103, name = MyTracks
AthenaEventLoopMgr   INFO   ===>>>  start processing event #16, run #1 6 events processed so far  <<<===
ReadData            DEBUG in execute()
ReadData          WARNING Could not find EventStreamInfo
ReadData             INFO EventInfo event: 16 run: 1
ReadData             INFO Get Smart data ptr 1
ReadData             INFO Track pt = 1617.37 eta = -10.5997 phi = 237.045 detector = Track made in: DummyHitDetector
ReadData          WARNING Could not follow ExampleTrackContainer/MyTracks ElementLinks to ExampleHitContainer/MyHits
ReadData             INFO Could not find ExampleHitContainer/MyHits
AthenaEventLoopMgr   INFO   ===>>>  done processing event #16, run #1 7 events processed so far  <<<===
EventSelector       DEBUG Get AttributeList from the collection
EventSelector       DEBUG AttributeList size 2
EventSelector       DEBUG record AthenaAttribute, name = Stream1_derived_ref = [DB=????][CNT=POOLContainer(DataHeader)][CLID=????][TECH=0000020?][OID=00000006-00000007].
EventSelector       DEBUG record AthenaAttribute, name = Stream1_ref = [DB=????][CNT=][CLID=????][TECH=0000020?][OID=00000006-00000011].
EventSelector       DEBUG record AthenaAttribute, name = eventRef = [DB=????][CNT=POOLContainer(DataHeader)][CLID=????][TECH=0000020?][OID=00000006-00000007].
EventSelector       DEBUG found AthenaAttribute, name = eventRef = [DB=????][CNT=POOLContainer(DataHeader)][CLID=????][TECH=0000020?][OID=00000006-00000007]
AthenaPoolAddre...  DEBUG The current Event contains: 3 objects
AthenaPoolAddre...  DEBUG loadAddresses: DataObject address, clid = 2101, name = McEventInfo
AthenaPoolAddre...  DEBUG loadAddresses: DataObject address, clid = 9103, name = MyTracks
AthenaEventLoopMgr   INFO   ===>>>  start processing event #17, run #1 7 events processed so far  <<<===
ReadData            DEBUG in execute()
ReadData          WARNING Could not find EventStreamInfo
ReadData             INFO EventInfo event: 17 run: 1
ReadData             INFO Get Smart data ptr 1
ReadData             INFO Track pt = 1717.27 eta = -10.562 phi = 251.697 detector = Track made in: DummyHitDetector
ReadData          WARNING Could not follow ExampleTrackContainer/MyTracks ElementLinks to ExampleHitContainer/MyHits
ReadData             INFO Could not find ExampleHitContainer/MyHits
AthenaEventLoopMgr   INFO   ===>>>  done processing event #17, run #1 8 events processed so far  <<<===
EventSelector       DEBUG Get AttributeList from the collection
EventSelector       DEBUG AttributeList size 2
EventSelector       DEBUG record AthenaAttribute, name = Stream1_derived_ref = [DB=????][CNT=POOLContainer(DataHeader)][CLID=????][TECH=0000020?][OID=00000006-00000008].
EventSelector       DEBUG record AthenaAttribute, name = Stream1_ref = [DB=????][CNT=][CLID=????][TECH=0000020?][OID=00000006-00000012].
EventSelector       DEBUG record AthenaAttribute, name = eventRef = [DB=????][CNT=POOLContainer(DataHeader)][CLID=????][TECH=0000020?][OID=00000006-00000008].
EventSelector       DEBUG found AthenaAttribute, name = eventRef = [DB=????][CNT=POOLContainer(DataHeader)][CLID=????][TECH=0000020?][OID=00000006-00000008]
AthenaPoolAddre...  DEBUG The current Event contains: 3 objects
AthenaPoolAddre...  DEBUG loadAddresses: DataObject address, clid = 2101, name = McEventInfo
AthenaPoolAddre...  DEBUG loadAddresses: DataObject address, clid = 9103, name = MyTracks
AthenaEventLoopMgr   INFO   ===>>>  start processing event #18, run #1 8 events processed so far  <<<===
ReadData            DEBUG in execute()
ReadData          WARNING Could not find EventStreamInfo
ReadData             INFO EventInfo event: 18 run: 1
ReadData             INFO Get Smart data ptr 1
ReadData             INFO Track pt = 1817.19 eta = -10.5288 phi = 266.349 detector = Track made in: DummyHitDetector
ReadData          WARNING Could not follow ExampleTrackContainer/MyTracks ElementLinks to ExampleHitContainer/MyHits
ReadData             INFO Could not find ExampleHitContainer/MyHits
AthenaEventLoopMgr   INFO   ===>>>  done processing event #18, run #1 9 events processed so far  <<<===
EventSelector       DEBUG Get AttributeList from the collection
EventSelector       DEBUG AttributeList size 2
EventSelector       DEBUG record AthenaAttribute, name = Stream1_derived_ref = [DB=????][CNT=POOLContainer(DataHeader)][CLID=????][TECH=0000020?][OID=00000006-00000009].
EventSelector       DEBUG record AthenaAttribute, name = Stream1_ref = [DB=????][CNT=][CLID=????][TECH=0000020?][OID=00000006-00000013].
EventSelector       DEBUG record AthenaAttribute, name = eventRef = [DB=????][CNT=POOLContainer(DataHeader)][CLID=????][TECH=0000020?][OID=00000006-00000009].
EventSelector       DEBUG found AthenaAttribute, name = eventRef = [DB=????][CNT=POOLContainer(DataHeader)][CLID=????][TECH=0000020?][OID=00000006-00000009]
AthenaPoolAddre...  DEBUG The current Event contains: 3 objects
AthenaPoolAddre...  DEBUG loadAddresses: DataObject address, clid = 2101, name = McEventInfo
AthenaPoolAddre...  DEBUG loadAddresses: DataObject address, clid = 9103, name = MyTracks
AthenaEventLoopMgr   INFO   ===>>>  start processing event #19, run #1 9 events processed so far  <<<===
ReadData            DEBUG in execute()
ReadData          WARNING Could not find EventStreamInfo
ReadData             INFO EventInfo event: 19 run: 1
ReadData             INFO Get Smart data ptr 1
ReadData             INFO Track pt = 1917.11 eta = -10.4993 phi = 281 detector = Track made in: DummyHitDetector
ReadData          WARNING Could not follow ExampleTrackContainer/MyTracks ElementLinks to ExampleHitContainer/MyHits
ReadData             INFO Could not find ExampleHitContainer/MyHits
AthenaEventLoopMgr   INFO   ===>>>  done processing event #19, run #1 10 events processed so far  <<<===
EventSelector        INFO Disconnecting input sourceID: ????
Domain[ROOT_All]     INFO ->  Deaccess DbDatabase   READ      [ROOT_All] ????
Domain[ROOT_All]     INFO >   Deaccess DbDomain     READ      [ROOT_All] 
AthenaEventLoopMgr   INFO No more events in event selection 
MetaDataSvc         DEBUG MetaDataSvc::stop()
ApplicationMgr       INFO Application Manager Stopped successfully
IncidentProcAlg1     INFO Finalize
ReadData             INFO in finalize()
IncidentProcAlg2     INFO Finalize
AthDictLoaderSvc     INFO in finalize...
ToolSvc              INFO Removing all tools created by ToolSvc
*****Chrono*****     INFO ****************************************************************************************************
*****Chrono*****     INFO  The Final CPU consumption ( Chrono ) Table (ordered)
*****Chrono*****     INFO ****************************************************************************************************
cObjR_ALL            INFO Time User   : Tot=   70 [ms] Ave/Min/Max= 3.18(+- 12.6)/    0/   60 [ms] #= 22
cObj_ALL             INFO Time User   : Tot=   80 [ms] Ave/Min/Max= 3.81(+-   15)/    0/   70 [ms] #= 21
ChronoStatSvc        INFO Time User   : Tot= 0.54  [s]                                             #=  1
*****Chrono*****     INFO ****************************************************************************************************
ChronoStatSvc.f...   INFO  Service finalized successfully 
ApplicationMgr       INFO Application Manager Finalized successfully
ApplicationMgr       INFO Application Manager Terminated successfully
Athena               INFO leaving with code 0: "successful run"
